{
	"lng_templates": "<%= paths.root %>/generator/aspnet_mvc",
	"output": "<%= paths.root %>/aspnet_mvc",

	"partials": "<%= paths.lng_templates %>/partials",
	"helpers": "<%= paths.lng_templates %>/helpers",
	"data": "<%= paths.lng_templates %>/data",

	"generator_data": "<%= paths.templates %>/data",
	"generator_partials": "<%= paths.templates %>/partials"
}